{
	"stylesheets" : 
	[
		"style"
	],

	"scripts" : 
	[
		"script.js"
	],

	"header" : 
	{ 
		"cssId" : "headerID",

		"height" : "60px",
		"backgroundColor": "#B7DCD4",
		"font": "Raleway",
		"textColor" : "#ffffff",
		"icon" :
		{
			"src" : "image/pixel-logo.png"
		},
		"items" : 
		[
			{
				"text" : "Home",
				"cssId" : "homeButton"
			},
			{
				"text" : "Contact"
			}
		]
	},
	
	"sections": 
	[
		{
			"type" : "single",

			"cssId" : "cover",

			"font": "arial",
			"backgroundColor" : "#B7DCD4",
			"textColor" : "#00Fa00",
			"minHeight" : "98%",
			
			"content" : 
			{
				"cssId" : "gifimage",
				"type" : "image",
				"src" : "image/laura-pixel.gif",
				
				"font" : "Raleway",
				"text" : "Here is a portfolio under construction"
			}
		},
		{
			"type" : "single",

			"minHeight" : "98%",
			
			"content" : 
			{
				"type" : "text",
				
				"title" : " ",
				"text" : " "
			}
		},

		{
			"type" : "2-way",
			"backgroundColor" : "white",
			
			"leftContent" : 
			{
				"cssId" : "meText",
				"type" : "text",
				
				"title" : "Here to serve…. the cat overlord.",
				"text" : "Op dit moment studeer ik Communication and Multimedia Design op de Hogeschool in Rotterdam. Ik heb voordat ik CMD ging studeren ook één jaar Mediatechnologie gestudeerd, maar ik wilde meer mijn creativiteit kwijt! Voor mijn HBO opleidingen heb ik ook nog 4 jaar lang een MBO-4 studie gevolgd over interieur adviseur, ik ben dan ook wel van alle markten thuis.<br>Deze ontdekkingen op verschillende scholen hebben er voor gezorgd waarnaar ik precies opzoek ben! Ik heb ervaren dat mijn passie ligt bij het werken in een teamverband, het creëren van nieuwe ideeën en de game industrie.<br>Ik ben te omschrijven als een levensgenieter, spontaan en kalmerend. Verder vind ik het belangrijk om de verantwoordelijkheden op me te nemen en ben ik een echte doorzetter, Ik ben dan ook zeer gemotiveerd voor de toekomst!<br>"
			},
		
			
			"rightContent" :

				{ 
				"cssId" : "me",

				"type" : "image",
				"autoScale" : false,
				"max-height" : "200px",
				"src" : "image/laura-rond.png"
			}

		},

		{
			"type" : "2-way",
			"backgroundColor" : "white",
			
			"leftContent" : 
			{ 
				"cssId" : "abnImage",

				"type" : "image",
				"autoScale" : false,
				"max-height" : "200px",
				"src" : "image/mockup-abn.jpg",
				"href": "http://lauravanheulen.nl/project/abnamro/"
			},
			
			"rightContent" :
			{

				"cssId" : "sparkyImage",

				"type" : "image",
				"autoScale" : false,
				"max-height" : "200px",
				"src" : "image/splash.png",
				"href": "http://lauravanheulen.nl/project/superhero-sparky/"

			}
		},

		{
			"type" : "2-way",
			"backgroundColor" : "white",
			
			"leftContent" : 
			{ 
				"cssId" : "abnImage",

				"type" : "image",
				"autoScale" : false,
				"max-height" : "200px",
				"src" : "image/mockup-abn.jpg",
				"href": "http://lauravanheulen.nl/project/abnamro/"
			},
			
			"rightContent" :
			{
				"type" : "text",
				
				"title" : "Hello",
				"text" : "hello I am Laura"
			}
		},

		{
			"type" : "single",
			"backgroundColor" : "#5500FF",
			
			"content" : 
			{
				"type" : "image",
				"autoScale" : true,
				"src" : "http://usapple.org/wp-content/uploads/2016/02/apple-red-delicious-337x335.png",
				"href" : "http://lauravanheulen.nl/project/abnamro/"
			}
		},
		{
			"type" : "single",
			"backgroundColor" : "#FF0055",
			
			"content" : 
			{
				"type" : "contactForm"
			}
		},
		{
			"type" : "single",
			"backgroundColor" : "#FF00FF",
			
			"content" : 
			{
				"type" : "list",
				
				"title" : "Stuff",

				"listItems" : 
				[
					{
						"text" : "this is the first item"
					},
					{
						"text" : "this is the second item",
						"href" : "www.facebook.com"
					}
				]
			}
		},
		{
			"type" : "2-way",
			"backgroundColor" : "#0000FF",
			
			"leftContent" : 
			{
				"type" : "image",
				"autoScale" : true,
				"src" : "http://usapple.org/wp-content/uploads/2016/02/apple-red-delicious-337x335.png",
				"href" : "http://google.com"
			},
			
			"rightContent" : 
			{
				"type" : "text",
				"title" : "Right Side",
				"text" : "hello I am Lauraaaaaaaaa"
			}
		},
		{
			"type" : "2-way",
			"backgroundColor" : "#FF00FF",
			
			"leftContent" : 
			{
				"type" : "youtube",
				"width" : "440",
				"height" : "390",
				"videoURL" : "EGTRX6pZSns"
			},
			
			"rightContent" : 
			{
				"type" : "iframe",
				"width" : "440",
				"height" : "390",
				"src" : "http://www.timfalken.com"
			}
		},
		{
			"type" : "3-way",
			
			"leftContent" : 
			{ 
				"type" : "image",
				"autoScale" : false,
				"max-height" : "200px",
				"src" : "http://usapple.org/wp-content/uploads/2016/02/apple-red-delicious-337x335.png",
				"text" : "this is underneath the image"
			},
			
			"centerContent" :
			{ 
				"type" : "image",
				"backgroundColor" : "#000000",
				"autoScale" : false,
				"max-height" : "200px",
				"src" : "http://usapple.org/wp-content/uploads/2016/02/apple-red-delicious-337x335.png"
			},
			
			"rightContent" : 
			{
				"type" : "text",
				
				"title" : "Hello",
				"text" : "hello I am Laura"
			}
		}
	]
}